
{"dataset": "norec", "task": "sentiment-classification", "dataset_languages": ["nb", "nn", "no"], "model": "labse_finetuned_contrastiveloss", "results": {"raw": {"test": [{"test_loss": 0.6878962516784668, "test_mcc": 0.5704213543777712, "test_macro_f1": 0.7076863087518953, "test_runtime": 6.8299, "test_samples_per_second": 299.858, "test_steps_per_second": 9.371}, {"test_loss": 0.7214514017105103, "test_mcc": 0.5252367929166574, "test_macro_f1": 0.6519457505455829, "test_runtime": 6.4482, "test_samples_per_second": 317.606, "test_steps_per_second": 9.925}, {"test_loss": 0.7017492055892944, "test_mcc": 0.5326526428689263, "test_macro_f1": 0.6631729918697022, "test_runtime": 6.5446, "test_samples_per_second": 312.928, "test_steps_per_second": 9.779}, {"test_loss": 0.7551572322845459, "test_mcc": 0.5347413925476939, "test_macro_f1": 0.6715446631795641, "test_runtime": 6.7645, "test_samples_per_second": 302.755, "test_steps_per_second": 9.461}, {"test_loss": 0.6928168535232544, "test_mcc": 0.510856760954962, "test_macro_f1": 0.6283195083142781, "test_runtime": 6.6852, "test_samples_per_second": 306.349, "test_steps_per_second": 9.573}, {"test_loss": 0.6944713592529297, "test_mcc": 0.5385499572023743, "test_macro_f1": 0.6766270176649737, "test_runtime": 6.7187, "test_samples_per_second": 304.82, "test_steps_per_second": 9.526}, {"test_loss": 0.7097979784011841, "test_mcc": 0.5770765282498612, "test_macro_f1": 0.7028348015083403, "test_runtime": 6.5163, "test_samples_per_second": 314.291, "test_steps_per_second": 9.822}, {"test_loss": 0.6929426193237305, "test_mcc": 0.5673909004995797, "test_macro_f1": 0.7032307271445654, "test_runtime": 6.749, "test_samples_per_second": 303.454, "test_steps_per_second": 9.483}, {"test_loss": 0.7034119367599487, "test_mcc": 0.5497658493774522, "test_macro_f1": 0.6663840225156528, "test_runtime": 6.832, "test_samples_per_second": 299.767, "test_steps_per_second": 9.368}, {"test_loss": 0.77769935131073, "test_mcc": 0.49443064103344175, "test_macro_f1": 0.6146789055848876, "test_runtime": 6.7556, "test_samples_per_second": 303.155, "test_steps_per_second": 9.474}]}, "total": {"test_mcc": 54.011228200287206, "test_mcc_se": 1.649355663143776, "test_macro_f1": 66.86424697079443, "test_macro_f1_se": 1.9396259511066196}}, "num_model_parameters": 470929155, "max_sequence_length": 512, "vocabulary_size": 501153, "generative": false, "few_shot": true, "validation_split": false, "scandeval_version": "12.1.0"}
{"dataset": "norec", "task": "sentiment-classification", "dataset_languages": ["nb", "nn", "no"], "model": "sentence-transformers/LaBSE", "results": {"raw": {"test": [{"test_loss": 0.6878962516784668, "test_mcc": 0.5704213543777712, "test_macro_f1": 0.7076863087518953, "test_runtime": 6.9535, "test_samples_per_second": 294.528, "test_steps_per_second": 9.204}, {"test_loss": 0.7214514017105103, "test_mcc": 0.5252367929166574, "test_macro_f1": 0.6519457505455829, "test_runtime": 6.525, "test_samples_per_second": 313.87, "test_steps_per_second": 9.808}, {"test_loss": 0.7017492055892944, "test_mcc": 0.5326526428689263, "test_macro_f1": 0.6631729918697022, "test_runtime": 6.6359, "test_samples_per_second": 308.624, "test_steps_per_second": 9.644}, {"test_loss": 0.7551572322845459, "test_mcc": 0.5347413925476939, "test_macro_f1": 0.6715446631795641, "test_runtime": 6.7142, "test_samples_per_second": 305.026, "test_steps_per_second": 9.532}, {"test_loss": 0.6928168535232544, "test_mcc": 0.510856760954962, "test_macro_f1": 0.6283195083142781, "test_runtime": 6.7642, "test_samples_per_second": 302.77, "test_steps_per_second": 9.462}, {"test_loss": 0.6944713592529297, "test_mcc": 0.5385499572023743, "test_macro_f1": 0.6766270176649737, "test_runtime": 7.0478, "test_samples_per_second": 290.588, "test_steps_per_second": 9.081}, {"test_loss": 0.7097979784011841, "test_mcc": 0.5770765282498612, "test_macro_f1": 0.7028348015083403, "test_runtime": 6.6367, "test_samples_per_second": 308.587, "test_steps_per_second": 9.643}, {"test_loss": 0.6929426193237305, "test_mcc": 0.5673909004995797, "test_macro_f1": 0.7032307271445654, "test_runtime": 6.8728, "test_samples_per_second": 297.987, "test_steps_per_second": 9.312}, {"test_loss": 0.7034119367599487, "test_mcc": 0.5497658493774522, "test_macro_f1": 0.6663840225156528, "test_runtime": 6.8872, "test_samples_per_second": 297.364, "test_steps_per_second": 9.293}, {"test_loss": 0.77769935131073, "test_mcc": 0.49443064103344175, "test_macro_f1": 0.6146789055848876, "test_runtime": 7.6836, "test_samples_per_second": 266.542, "test_steps_per_second": 8.329}]}, "total": {"test_mcc": 54.011228200287206, "test_mcc_se": 1.649355663143776, "test_macro_f1": 66.86424697079443, "test_macro_f1_se": 1.9396259511066196}}, "num_model_parameters": 470929155, "max_sequence_length": 512, "vocabulary_size": 501153, "generative": false, "few_shot": true, "validation_split": false, "scandeval_version": "12.1.0"}
{"dataset": "norec", "task": "sentiment-classification", "dataset_languages": ["nb", "nn", "no"], "model": "labse_finetuned_multiplenegativesrankingloss", "results": {"raw": {"test": [{"test_loss": 0.7250809669494629, "test_mcc": 0.5382580300032069, "test_macro_f1": 0.6729310938280838, "test_runtime": 6.7575, "test_samples_per_second": 303.069, "test_steps_per_second": 9.471}, {"test_loss": 0.7772980332374573, "test_mcc": 0.5111151569988402, "test_macro_f1": 0.6593189676981721, "test_runtime": 6.8724, "test_samples_per_second": 298.002, "test_steps_per_second": 9.313}, {"test_loss": 0.768156111240387, "test_mcc": 0.5167142426784858, "test_macro_f1": 0.6537668021123322, "test_runtime": 6.481, "test_samples_per_second": 316.002, "test_steps_per_second": 9.875}, {"test_loss": 0.7843670845031738, "test_mcc": 0.5097723761355896, "test_macro_f1": 0.652999978799259, "test_runtime": 8.2214, "test_samples_per_second": 249.106, "test_steps_per_second": 7.785}, {"test_loss": 0.7039499282836914, "test_mcc": 0.529059079744113, "test_macro_f1": 0.6531782360741718, "test_runtime": 6.5842, "test_samples_per_second": 311.046, "test_steps_per_second": 9.72}, {"test_loss": 0.7333558201789856, "test_mcc": 0.5257989596447299, "test_macro_f1": 0.6590955273202604, "test_runtime": 6.7335, "test_samples_per_second": 304.151, "test_steps_per_second": 9.505}, {"test_loss": 0.7286419868469238, "test_mcc": 0.5492702720194351, "test_macro_f1": 0.6753505371558889, "test_runtime": 6.6153, "test_samples_per_second": 309.586, "test_steps_per_second": 9.675}, {"test_loss": 0.7417871952056885, "test_mcc": 0.49815821454370995, "test_macro_f1": 0.6337449944206665, "test_runtime": 7.5681, "test_samples_per_second": 270.611, "test_steps_per_second": 8.457}, {"test_loss": 0.7377656698226929, "test_mcc": 0.5143308166438417, "test_macro_f1": 0.6451010093024688, "test_runtime": 6.78, "test_samples_per_second": 302.063, "test_steps_per_second": 9.439}, {"test_loss": 0.7481671571731567, "test_mcc": 0.526457723990265, "test_macro_f1": 0.6623920476106206, "test_runtime": 6.975, "test_samples_per_second": 293.621, "test_steps_per_second": 9.176}]}, "total": {"test_mcc": 52.18934872402217, "test_mcc_se": 0.9274555699648832, "test_macro_f1": 65.67879194321924, "test_macro_f1_se": 0.7597724790692282}}, "num_model_parameters": 470929155, "max_sequence_length": 512, "vocabulary_size": 501153, "generative": false, "few_shot": true, "validation_split": false, "scandeval_version": "12.1.0"}
{"dataset": "sst5", "task": "sentiment-classification", "dataset_languages": ["en"], "model": "sentence-transformers/LaBSE", "results": {"raw": {"test": [{"test_loss": 0.7216856479644775, "test_mcc": 0.5421795074050597, "test_macro_f1": 0.5334169903023893, "test_runtime": 6.2565, "test_samples_per_second": 327.34, "test_steps_per_second": 10.229}, {"test_loss": 0.6944441795349121, "test_mcc": 0.5438546716416848, "test_macro_f1": 0.6216038746858269, "test_runtime": 5.8992, "test_samples_per_second": 347.166, "test_steps_per_second": 10.849}, {"test_loss": 0.7231059074401855, "test_mcc": 0.5143362928456751, "test_macro_f1": 0.6081327172064114, "test_runtime": 5.9188, "test_samples_per_second": 346.015, "test_steps_per_second": 10.813}, {"test_loss": 0.6977626085281372, "test_mcc": 0.5319046587424122, "test_macro_f1": 0.5876325697658635, "test_runtime": 5.9606, "test_samples_per_second": 343.59, "test_steps_per_second": 10.737}, {"test_loss": 0.7860019207000732, "test_mcc": 0.4835498015661305, "test_macro_f1": 0.5314182824823743, "test_runtime": 5.9454, "test_samples_per_second": 344.466, "test_steps_per_second": 10.765}, {"test_loss": 0.7251956462860107, "test_mcc": 0.5446536254209144, "test_macro_f1": 0.5526568795949144, "test_runtime": 5.866, "test_samples_per_second": 349.129, "test_steps_per_second": 10.91}, {"test_loss": 0.6598020792007446, "test_mcc": 0.5716074656666259, "test_macro_f1": 0.635921993413556, "test_runtime": 5.8801, "test_samples_per_second": 348.291, "test_steps_per_second": 10.884}, {"test_loss": 0.6956115961074829, "test_mcc": 0.5653424334948804, "test_macro_f1": 0.5868346199288734, "test_runtime": 5.8249, "test_samples_per_second": 351.594, "test_steps_per_second": 10.987}, {"test_loss": 0.6818053722381592, "test_mcc": 0.5363701383721158, "test_macro_f1": 0.6204103154780585, "test_runtime": 5.861, "test_samples_per_second": 349.429, "test_steps_per_second": 10.92}, {"test_loss": 0.6789106130599976, "test_mcc": 0.5570449272409973, "test_macro_f1": 0.6032424006583451, "test_runtime": 5.9077, "test_samples_per_second": 346.663, "test_steps_per_second": 10.833}]}, "total": {"test_mcc": 53.90843522396496, "test_mcc_se": 1.5854129789418236, "test_macro_f1": 58.81270643516614, "test_macro_f1_se": 2.3140442286846974}}, "num_model_parameters": 470929155, "max_sequence_length": 512, "vocabulary_size": 501153, "generative": false, "few_shot": true, "validation_split": false, "scandeval_version": "12.1.0"}
{"dataset": "sst5", "task": "sentiment-classification", "dataset_languages": ["en"], "model": "labse_finetuned_multiplenegativesrankingloss", "results": {"raw": {"test": [{"test_loss": 0.6746658086776733, "test_mcc": 0.526220677741073, "test_macro_f1": 0.5992369695058436, "test_runtime": 5.8864, "test_samples_per_second": 347.921, "test_steps_per_second": 10.873}, {"test_loss": 0.6831567883491516, "test_mcc": 0.5368348999719814, "test_macro_f1": 0.6002708205712423, "test_runtime": 5.8776, "test_samples_per_second": 348.442, "test_steps_per_second": 10.889}, {"test_loss": 0.7459174394607544, "test_mcc": 0.48287024633332204, "test_macro_f1": 0.5769204502645447, "test_runtime": 5.9008, "test_samples_per_second": 347.069, "test_steps_per_second": 10.846}, {"test_loss": 0.6897495985031128, "test_mcc": 0.5317145184178163, "test_macro_f1": 0.5920826570862707, "test_runtime": 5.9532, "test_samples_per_second": 344.015, "test_steps_per_second": 10.75}, {"test_loss": 0.7963654398918152, "test_mcc": 0.46740512892742925, "test_macro_f1": 0.5841961567428801, "test_runtime": 5.9665, "test_samples_per_second": 343.25, "test_steps_per_second": 10.727}, {"test_loss": 0.7494726181030273, "test_mcc": 0.5269893344326474, "test_macro_f1": 0.5564324491927266, "test_runtime": 5.8383, "test_samples_per_second": 350.787, "test_steps_per_second": 10.962}, {"test_loss": 0.7207525968551636, "test_mcc": 0.5053352543430446, "test_macro_f1": 0.5755588324282171, "test_runtime": 5.8132, "test_samples_per_second": 352.301, "test_steps_per_second": 11.009}, {"test_loss": 0.689466118812561, "test_mcc": 0.5436797523326355, "test_macro_f1": 0.5720436900862148, "test_runtime": 5.7926, "test_samples_per_second": 353.557, "test_steps_per_second": 11.049}, {"test_loss": 0.7275546789169312, "test_mcc": 0.5127022742012747, "test_macro_f1": 0.6020753234905646, "test_runtime": 5.7316, "test_samples_per_second": 357.319, "test_steps_per_second": 11.166}, {"test_loss": 0.7144759893417358, "test_mcc": 0.5122099366573245, "test_macro_f1": 0.6025825345947632, "test_runtime": 5.8272, "test_samples_per_second": 351.456, "test_steps_per_second": 10.983}]}, "total": {"test_mcc": 51.45962023358549, "test_mcc_se": 1.4970812977279413, "test_macro_f1": 58.61399883963267, "test_macro_f1_se": 0.9718652553155236}}, "num_model_parameters": 470929155, "max_sequence_length": 512, "vocabulary_size": 501153, "generative": false, "few_shot": true, "validation_split": false, "scandeval_version": "12.1.0"}
{"dataset": "sst5", "task": "sentiment-classification", "dataset_languages": ["en"], "model": "labse_finetuned_contrastiveloss", "results": {"raw": {"test": [{"test_loss": 0.7216856479644775, "test_mcc": 0.5421795074050597, "test_macro_f1": 0.5334169903023893, "test_runtime": 5.825, "test_samples_per_second": 351.587, "test_steps_per_second": 10.987}, {"test_loss": 0.6944441795349121, "test_mcc": 0.5438546716416848, "test_macro_f1": 0.6216038746858269, "test_runtime": 5.8671, "test_samples_per_second": 349.066, "test_steps_per_second": 10.908}, {"test_loss": 0.7231059074401855, "test_mcc": 0.5143362928456751, "test_macro_f1": 0.6081327172064114, "test_runtime": 5.8165, "test_samples_per_second": 352.102, "test_steps_per_second": 11.003}, {"test_loss": 0.6977626085281372, "test_mcc": 0.5319046587424122, "test_macro_f1": 0.5876325697658635, "test_runtime": 6.0207, "test_samples_per_second": 340.159, "test_steps_per_second": 10.63}, {"test_loss": 0.7860019207000732, "test_mcc": 0.4835498015661305, "test_macro_f1": 0.5314182824823743, "test_runtime": 5.9525, "test_samples_per_second": 344.057, "test_steps_per_second": 10.752}, {"test_loss": 0.7251956462860107, "test_mcc": 0.5446536254209144, "test_macro_f1": 0.5526568795949144, "test_runtime": 5.9745, "test_samples_per_second": 342.79, "test_steps_per_second": 10.712}, {"test_loss": 0.6598020792007446, "test_mcc": 0.5716074656666259, "test_macro_f1": 0.635921993413556, "test_runtime": 5.8108, "test_samples_per_second": 352.446, "test_steps_per_second": 11.014}, {"test_loss": 0.6956115961074829, "test_mcc": 0.5653424334948804, "test_macro_f1": 0.5868346199288734, "test_runtime": 5.8133, "test_samples_per_second": 352.293, "test_steps_per_second": 11.009}, {"test_loss": 0.6818053722381592, "test_mcc": 0.5363701383721158, "test_macro_f1": 0.6204103154780585, "test_runtime": 5.8374, "test_samples_per_second": 350.842, "test_steps_per_second": 10.964}, {"test_loss": 0.6789106130599976, "test_mcc": 0.5570449272409973, "test_macro_f1": 0.6032424006583451, "test_runtime": 5.8918, "test_samples_per_second": 347.6, "test_steps_per_second": 10.863}]}, "total": {"test_mcc": 53.90843522396496, "test_mcc_se": 1.5854129789418236, "test_macro_f1": 58.81270643516614, "test_macro_f1_se": 2.3140442286846974}}, "num_model_parameters": 470929155, "max_sequence_length": 512, "vocabulary_size": 501153, "generative": false, "few_shot": true, "validation_split": false, "scandeval_version": "12.1.0"}